---
http_interactions:
- request:
    method: post
    uri: https://accounts.spotify.com/api/token
    body:
      encoding: UTF-8
      string: grant_type=refresh_token&refresh_token=<SPOTIFY_REQUEST_TOKEN>
    headers:
      User-Agent:
      - Faraday v0.15.4
      Content-Type:
      - application/x-www-form-urlencoded
      Authorization:
      - Basic NWYwNzM3MTE1NzVhNGMwM2I2NjJhYjgwY2M0MDFiMDI6NzFmYWE3ZTE5ZTVhNDM2MDhmODAyZWZhNjE5ZjIzNmU=
      Accept-Encoding:
      - gzip;q=1.0,deflate;q=0.6,identity;q=0.3
      Accept:
      - "*/*"
  response:
    status:
      code: 200
      message: OK
    headers:
      Server:
      - nginx
      Date:
      - Sat, 16 Feb 2019 18:55:27 GMT
      Content-Type:
      - application/json
      Transfer-Encoding:
      - chunked
      Connection:
      - keep-alive
      Keep-Alive:
      - timeout=600
      Vary:
      - Accept-Encoding
      X-Content-Type-Options:
      - nosniff
      Strict-Transport-Security:
      - max-age=31536000
    body:
      encoding: ASCII-8BIT
      string: '{"access_token":"BQAktA9xp1BI5zfIiftjf73CLQN3Vt8dTeSXAVlWImWBbtRg0qbhf3qBrJJq1qmlx5dIyzCblwmAJYucbSCMbsIo2sGBYLjLzKxOF3H5PJ_fH360Esbp2H_NvR0nv56-hGr0APiryC5qvvsW4XC9YQ3m8jREp6NuIkdHVu_tal8b_QO8lr43Ytwb","token_type":"Bearer","expires_in":3600,"scope":"playlist-read-private
        user-read-email user-read-recently-played user-read-private user-top-read"}'
    http_version: 
  recorded_at: Sat, 16 Feb 2019 18:55:27 GMT
- request:
    method: get
    uri: https://api.spotify.com/v1/me/top/artists?limit=5&time_range=short_term
    body:
      encoding: US-ASCII
      string: ''
    headers:
      Authorization:
      - Bearer BQAktA9xp1BI5zfIiftjf73CLQN3Vt8dTeSXAVlWImWBbtRg0qbhf3qBrJJq1qmlx5dIyzCblwmAJYucbSCMbsIo2sGBYLjLzKxOF3H5PJ_fH360Esbp2H_NvR0nv56-hGr0APiryC5qvvsW4XC9YQ3m8jREp6NuIkdHVu_tal8b_QO8lr43Ytwb
      User-Agent:
      - Faraday v0.15.4
      Accept-Encoding:
      - gzip;q=1.0,deflate;q=0.6,identity;q=0.3
      Accept:
      - "*/*"
  response:
    status:
      code: 200
      message: OK
    headers:
      Content-Type:
      - application/json; charset=utf-8
      Cache-Control:
      - private, max-age=0
      Access-Control-Allow-Origin:
      - "*"
      Access-Control-Allow-Headers:
      - Accept, Authorization, Origin, Content-Type, Retry-After
      Access-Control-Allow-Methods:
      - GET, POST, OPTIONS, PUT, DELETE, PATCH
      Access-Control-Allow-Credentials:
      - 'true'
      Access-Control-Max-Age:
      - '604800'
      Date:
      - Sat, 16 Feb 2019 18:55:28 GMT
      Via:
      - 1.1 google
      Alt-Svc:
      - clear
      Transfer-Encoding:
      - chunked
    body:
      encoding: ASCII-8BIT
      string: |-
        {
          "items" : [ {
            "external_urls" : {
              "spotify" : "https://open.spotify.com/artist/2YZyLoL8N0Wb9xBt1NhZWg"
            },
            "followers" : {
              "href" : null,
              "total" : 11836485
            },
            "genres" : [ "conscious hip hop", "hip hop", "pop rap", "rap", "west coast rap" ],
            "href" : "https://api.spotify.com/v1/artists/2YZyLoL8N0Wb9xBt1NhZWg",
            "id" : "2YZyLoL8N0Wb9xBt1NhZWg",
            "images" : [ {
              "height" : 640,
              "url" : "https://i.scdn.co/image/3a836196bfb341f736c7fe2704fb75de53f8dfbb",
              "width" : 640
            }, {
              "height" : 320,
              "url" : "https://i.scdn.co/image/5259c0496329b3f608a1ae0edb799cd2f8451acc",
              "width" : 320
            }, {
              "height" : 160,
              "url" : "https://i.scdn.co/image/b772a78d4cb192268d6f601a78f21044c17d6dda",
              "width" : 160
            } ],
            "name" : "Kendrick Lamar",
            "popularity" : 89,
            "type" : "artist",
            "uri" : "spotify:artist:2YZyLoL8N0Wb9xBt1NhZWg"
          }, {
            "external_urls" : {
              "spotify" : "https://open.spotify.com/artist/20qISvAhX20dpIbOOzGK3q"
            },
            "followers" : {
              "href" : null,
              "total" : 1479452
            },
            "genres" : [ "conscious hip hop", "east coast hip hop", "gangster rap", "hardcore hip hop", "hip hop", "pop rap", "rap" ],
            "href" : "https://api.spotify.com/v1/artists/20qISvAhX20dpIbOOzGK3q",
            "id" : "20qISvAhX20dpIbOOzGK3q",
            "images" : [ {
              "height" : 735,
              "url" : "https://i.scdn.co/image/ba18d0131343ca84cb9ab0eb31f56745302bc78f",
              "width" : 1000
            }, {
              "height" : 471,
              "url" : "https://i.scdn.co/image/7f6d93659bb6ad6d8e13b97d07ed78b52bad1287",
              "width" : 640
            }, {
              "height" : 147,
              "url" : "https://i.scdn.co/image/0e6a0ce11380a894c723e3ae9c9c82468f0ad174",
              "width" : 200
            }, {
              "height" : 47,
              "url" : "https://i.scdn.co/image/531bc7dbf458cacde0d4d9a8f5696b7b4e8d4ada",
              "width" : 64
            } ],
            "name" : "Nas",
            "popularity" : 73,
            "type" : "artist",
            "uri" : "spotify:artist:20qISvAhX20dpIbOOzGK3q"
          }, {
            "external_urls" : {
              "spotify" : "https://open.spotify.com/artist/6l3HvQ5sa6mXTsMTB19rO5"
            },
            "followers" : {
              "href" : null,
              "total" : 7499458
            },
            "genres" : [ "conscious hip hop", "nc hip hop", "pop", "pop rap", "rap" ],
            "href" : "https://api.spotify.com/v1/artists/6l3HvQ5sa6mXTsMTB19rO5",
            "id" : "6l3HvQ5sa6mXTsMTB19rO5",
            "images" : [ {
              "height" : 640,
              "url" : "https://i.scdn.co/image/1e9eeefb2c94579150fc37916e8319b975ec8a52",
              "width" : 640
            }, {
              "height" : 320,
              "url" : "https://i.scdn.co/image/e021db512f24f1b9aafad580db7408863346e9cf",
              "width" : 320
            }, {
              "height" : 160,
              "url" : "https://i.scdn.co/image/35c726dfde2a3d5545a8b6cbe9cfeaaea3666764",
              "width" : 160
            } ],
            "name" : "J. Cole",
            "popularity" : 89,
            "type" : "artist",
            "uri" : "spotify:artist:6l3HvQ5sa6mXTsMTB19rO5"
          }, {
            "external_urls" : {
              "spotify" : "https://open.spotify.com/artist/3fJ60AcIgLzQkVitEvA7uq"
            },
            "followers" : {
              "href" : null,
              "total" : 110414
            },
            "genres" : [ "alternative hip hop", "east coast hip hop", "gangster rap", "hardcore hip hop", "hip hop", "jazz rap", "rap", "turntablism" ],
            "href" : "https://api.spotify.com/v1/artists/3fJ60AcIgLzQkVitEvA7uq",
            "id" : "3fJ60AcIgLzQkVitEvA7uq",
            "images" : [ {
              "height" : 500,
              "url" : "https://i.scdn.co/image/f206b28b49faedc145f993eec554cb03055f7fd8",
              "width" : 500
            }, {
              "height" : 200,
              "url" : "https://i.scdn.co/image/70386c40cadc6c9d273557ca41f1c13350ccb405",
              "width" : 200
            }, {
              "height" : 64,
              "url" : "https://i.scdn.co/image/4db6527d3a430b536a5d692302763374c1a2c5d9",
              "width" : 64
            } ],
            "name" : "Pete Rock & C.L. Smooth",
            "popularity" : 52,
            "type" : "artist",
            "uri" : "spotify:artist:3fJ60AcIgLzQkVitEvA7uq"
          }, {
            "external_urls" : {
              "spotify" : "https://open.spotify.com/artist/1ZwdS5xdxEREPySFridCfh"
            },
            "followers" : {
              "href" : null,
              "total" : 5597443
            },
            "genres" : [ "g funk", "gangster rap", "hip hop", "pop rap", "rap", "west coast rap" ],
            "href" : "https://api.spotify.com/v1/artists/1ZwdS5xdxEREPySFridCfh",
            "id" : "1ZwdS5xdxEREPySFridCfh",
            "images" : [ {
              "height" : 1000,
              "url" : "https://i.scdn.co/image/fdb2382075f400ca2f2fbddaebb93add82ca8f32",
              "width" : 1000
            }, {
              "height" : 640,
              "url" : "https://i.scdn.co/image/e92cf49011e4c26f736cd479b0b64cb08f1b52c6",
              "width" : 640
            }, {
              "height" : 200,
              "url" : "https://i.scdn.co/image/0334d2f0cd1eb65f81831c4ddf4a0b249479564c",
              "width" : 200
            }, {
              "height" : 64,
              "url" : "https://i.scdn.co/image/c9baaaa56cc3e4c1b5b60e09632ba8b78ff52abd",
              "width" : 64
            } ],
            "name" : "2Pac",
            "popularity" : 80,
            "type" : "artist",
            "uri" : "spotify:artist:1ZwdS5xdxEREPySFridCfh"
          } ],
          "total" : 35,
          "limit" : 5,
          "offset" : 0,
          "previous" : null,
          "href" : "https://api.spotify.com/v1/me/top/artists?limit=5&offset=0&time_range=short_term",
          "next" : "https://api.spotify.com/v1/me/top/artists?limit=5&offset=5&time_range=short_term"
        }
    http_version: 
  recorded_at: Sat, 16 Feb 2019 18:55:28 GMT
recorded_with: VCR 4.0.0
